{
  "enforceSecurity" : true,
  "rememberMeConfig" : null,
  "sslConfig" : {
    "sslPort" : 443,
    "useSSL" : false,
    "excludedUrls" : null
  },
  "authProviders" : [ "DATABASE" ],
  "login" : {
    "type" : "PAGE",
    "pageName" : "Login",
    "sessionTimeout" : {
      "type" : "DIALOG",
      "pageName" : null,
      "timeoutValue" : 30
    }
  }
}